[
  {
    "name": "Mike",
    "image": "88340.jpg",
    "id": "25472"
  },
  {
    "name": "Kate",
    "image": "88341.jpg",
    "id": "26772"
  },
  {
    "name": "Bob",
    "image": "88342.jpg",
    "id": "25482"
  }
]
